Iflow
…
Cargar Datos

df <- read_excel("iFlowDatos.xlsx") 
df

# A tibble: 27,484 × 16
   iddomicilioorden direccion      localidad InicioHorario1 FinHorario1 latitud
              <dbl> <chr>          <chr>              <dbl>       <dbl>   <dbl>
 1            74956 VIDAL 2044     CAPITAL              901        1401   -34.6
 2            74956 VIDAL 2044     CAPITAL              901        1401   -34.6
 3            74956 VIDAL 2044     CAPITAL              901        1401   -34.6
 4            74956 VIDAL 2044     CAPITAL              901        1401   -34.6
 5            74956 VIDAL 2044     CAPITAL              901        1401   -34.6
 6            74956 VIDAL 2044     CAPITAL              901        1401   -34.6
 7            74956 VIDAL 2044     CAPITAL              901        1401   -34.6
 8            74956 VIDAL 2044     CAPITAL              901        1401   -34.6
 9            74958 M PEDRAZA 2370 CAPITAL              901        1401   -34.6
10            74958 M PEDRAZA 2370 CAPITAL              901        1401   -34.6
# ℹ 27,474 more rows
# ℹ 10 more variables: longitud <dbl>, cliente <dbl>, mes <dbl>, Bultos <dbl>,
#   Peso <dbl>, Unidades <dbl>, InicioVisitaPlanificado <chr>,
#   FinVisitaPlanificado <chr>, InicioVisitaReal <chr>, FinVisitaReal <chr>

Limpieza de los Datos

df_clean <- df %>% 
  filter(latitud<(-34),longitud<(-58)) %>% 
  mutate(inicio = parse_date_time(InicioVisitaReal, orders = c("ymd HMS", "ymd_HMS", "dmy HMS"), tz = Sys.timezone(), quiet = TRUE)) %>% na.omit()%>%
  mutate(cliente = as.factor(cliente))

names(df_clean) <- tolower(names(df_clean))
df_clean

# A tibble: 27,382 × 17
   iddomicilioorden direccion      localidad iniciohorario1 finhorario1 latitud
              <dbl> <chr>          <chr>              <dbl>       <dbl>   <dbl>
 1            74956 VIDAL 2044     CAPITAL              901        1401   -34.6
 2            74956 VIDAL 2044     CAPITAL              901        1401   -34.6
 3            74956 VIDAL 2044     CAPITAL              901        1401   -34.6
 4            74956 VIDAL 2044     CAPITAL              901        1401   -34.6
 5            74956 VIDAL 2044     CAPITAL              901        1401   -34.6
 6            74956 VIDAL 2044     CAPITAL              901        1401   -34.6
 7            74956 VIDAL 2044     CAPITAL              901        1401   -34.6
 8            74956 VIDAL 2044     CAPITAL              901        1401   -34.6
 9            74958 M PEDRAZA 2370 CAPITAL              901        1401   -34.6
10            74958 M PEDRAZA 2370 CAPITAL              901        1401   -34.6
# ℹ 27,372 more rows
# ℹ 11 more variables: longitud <dbl>, cliente <fct>, mes <dbl>, bultos <dbl>,
#   peso <dbl>, unidades <dbl>, iniciovisitaplanificado <chr>,
#   finvisitaplanificado <chr>, iniciovisitareal <chr>, finvisitareal <chr>,
#   inicio <dttm>
…
df_clean$finvisitaplanificado <- as.POSIXct(df_clean$finvisitaplanificado, format="%Y-%m-%d %H:%M:%OS")

df_clean <- df_clean %>% 
  mutate(
duracion_visita = difftime(df_clean$finvisitareal, df_clean$iniciovisitareal, units = "mins"))

# Ó HAGO
df_clean$iniciovisitaplanificado <- as.POSIXct(df_clean$iniciovisitaplanificado, format = "%Y-%m-%d %H:%M:%OS", tz = "UTC")
df_clean$finvisitaplanificado <- as.POSIXct(df_clean$finvisitaplanificado, format = "%Y-%m-%d %H:%M:%OS", tz = "UTC")
df_clean$iniciovisitareal <- as.POSIXct(df_clean$iniciovisitareal, format = "%Y-%m-%d %H:%M:%OS", tz = "UTC")
df_clean$finvisitareal <- as.POSIXct(df_clean$finvisitareal, format = "%Y-%m-%d %H:%M:%OS", tz = "UTC")

df_clean

# A tibble: 27,382 × 18
   iddomicilioorden direccion      localidad iniciohorario1 finhorario1 latitud
              <dbl> <chr>          <chr>              <dbl>       <dbl>   <dbl>
 1            74956 VIDAL 2044     CAPITAL              901        1401   -34.6
 2            74956 VIDAL 2044     CAPITAL              901        1401   -34.6
 3            74956 VIDAL 2044     CAPITAL              901        1401   -34.6
 4            74956 VIDAL 2044     CAPITAL              901        1401   -34.6
 5            74956 VIDAL 2044     CAPITAL              901        1401   -34.6
 6            74956 VIDAL 2044     CAPITAL              901        1401   -34.6
 7            74956 VIDAL 2044     CAPITAL              901        1401   -34.6
 8            74956 VIDAL 2044     CAPITAL              901        1401   -34.6
 9            74958 M PEDRAZA 2370 CAPITAL              901        1401   -34.6
10            74958 M PEDRAZA 2370 CAPITAL              901        1401   -34.6
# ℹ 27,372 more rows
# ℹ 12 more variables: longitud <dbl>, cliente <fct>, mes <dbl>, bultos <dbl>,
#   peso <dbl>, unidades <dbl>, iniciovisitaplanificado <dttm>,
#   finvisitaplanificado <dttm>, iniciovisitareal <dttm>, finvisitareal <dttm>,
#   inicio <dttm>, duracion_visita <drtn>
…
